<?xml version="1.0" encoding="iso-8859-1"?>
<!-- Generator: Adobe Illustrator 19.0.0, SVG Export Plug-In . SVG Version: 6.00 Build 0)  -->
<svg version="1.1" id="Capa_1" xmlns="http://www.w3.org/2000/svg" xmlns:xlink="http://www.w3.org/1999/xlink" x="0px" y="0px"
	 viewBox="0 0 384 384" style="enable-background:new 0 0 384 384;" xml:space="preserve">
<g>
	<g>
		<path d="M383.999,25.909c0.042-2.783-1-5.579-3.122-7.703L365.794,3.125c-2.009-2.01-4.621-3.051-7.255-3.121
			c-2.824-0.076-5.674,0.965-7.829,3.121L42.667,311.167v-172.5C42.667,132.771,37.896,128,32,128H10.667
			C4.771,128,0,132.771,0,138.667v234.667C0,379.229,4.771,384,10.667,384h234.667c5.896,0,10.667-4.771,10.667-10.667V352
			c0-5.896-4.771-10.667-10.667-10.667h-172.5L380.876,33.292C382.918,31.249,383.958,28.585,383.999,25.909z"/>
	</g>
</g>
<g>
</g>
<g>
</g>
<g>
</g>
<g>
</g>
<g>
</g>
<g>
</g>
<g>
</g>
<g>
</g>
<g>
</g>
<g>
</g>
<g>
</g>
<g>
</g>
<g>
</g>
<g>
</g>
<g>
</g>
</svg>
