<svg width="18" height="22" viewBox="0 0 18 22" fill="none" xmlns="http://www.w3.org/2000/svg">
<path d="M17.0297 5.76406L11.9859 0.720313C11.8453 0.579688 11.6555 0.5 11.4562 0.5H1.5C1.08516 0.5 0.75 0.835156 0.75 1.25V20.75C0.75 21.1648 1.08516 21.5 1.5 21.5H16.5C16.9148 21.5 17.25 21.1648 17.25 20.75V6.29609C17.25 6.09687 17.1703 5.90469 17.0297 5.76406ZM15.5203 6.64062H11.1094V2.22969L15.5203 6.64062ZM15.5625 19.8125H2.4375V2.1875H9.51562V7.25C9.51562 7.51107 9.61934 7.76145 9.80394 7.94606C9.98855 8.13066 10.2389 8.23438 10.5 8.23438H15.5625V19.8125ZM9.04922 12.5961L7.60078 10.1961C7.54922 10.1117 7.45781 10.0602 7.35938 10.0602H6.45938C6.40547 10.0602 6.35391 10.0742 6.30938 10.1047C6.17813 10.1867 6.13828 10.3602 6.22266 10.4937L8.15156 13.55L6.19687 16.6625C6.17032 16.7052 6.15565 16.7542 6.15438 16.8045C6.15312 16.8547 6.1653 16.9044 6.18968 16.9484C6.21405 16.9923 6.24973 17.029 6.29303 17.0546C6.33632 17.0801 6.38566 17.0937 6.43594 17.0938H7.24453C7.34297 17.0938 7.43203 17.0422 7.48359 16.9602L8.95312 14.5812L10.4133 16.9578C10.4648 17.0422 10.5562 17.0914 10.6523 17.0914H11.5312C11.5852 17.0914 11.6367 17.075 11.6836 17.0469C11.8148 16.9625 11.8523 16.7891 11.768 16.6578L9.79922 13.6016L11.7984 10.4961C11.8255 10.4535 11.8407 10.4045 11.8423 10.3541C11.844 10.3037 11.8322 10.2537 11.808 10.2095C11.7838 10.1652 11.7482 10.1282 11.7049 10.1024C11.6616 10.0765 11.6122 10.0628 11.5617 10.0625H10.725C10.6266 10.0625 10.5352 10.1141 10.4836 10.1984L9.04922 12.5961Z" fill="#20A5AB"/>
</svg>
